/Users/zeeshan.khalid/Desktop/ebot7WebApp/src/test/java/pageobjects/GoldFishPage.java
/Users/zeeshan.khalid/Desktop/ebot7WebApp/src/test/java/spec/ebot7Spec.java
/Users/zeeshan.khalid/Desktop/ebot7WebApp/src/test/java/spec/GoldFishSpec.java
/Users/zeeshan.khalid/Desktop/ebot7WebApp/src/test/java/pageobjects/ebot7Page.java
